FFT8bits_SystemC/FFT8_bit_TF/trace.vcd
$date
     Mar 17, 2021       14:27:16
$end

$version
 SystemC 2.3.3-Accellera --- Feb 10 2020 17:10:41
$end

$timescale
     1 ns
$end

$scope module SystemC $end
$scope module _top_ $end
$var real    1  aaaaa  fifo_0_0       $end
$var real    1  aaaab  fifo_0_1       $end
$var real    1  aaaac  fifo_0_2       $end
$var real    1  aaaad  fifo_0_3       $end
$var real    1  aaaae  fifo_0_4       $end
$var real    1  aaaaf  fifo_0_5       $end
$var real    1  aaaag  fifo_0_6       $end
$var real    1  aaaah  fifo_0_7       $end
$var real    1  aaaai  fifo_1_0       $end
$var real    1  aaaaj  fifo_1_1       $end
$var real    1  aaaak  fifo_1_2       $end
$var real    1  aaaal  fifo_1_3       $end
$var real    1  aaaam  fifo_1_4       $end
$var real    1  aaaan  fifo_1_5       $end
$var real    1  aaaao  fifo_1_6       $end
$var real    1  aaaap  fifo_1_7       $end
$var real    1  aaaaq  fifo_2_0       $end
$var real    1  aaaar  fifo_2_1       $end
$var real    1  aaaas  fifo_2_2       $end
$var real    1  aaaat  fifo_2_3       $end
$var real    1  aaaau  fifo_2_4       $end
$var real    1  aaaav  fifo_2_5       $end
$var real    1  aaaaw  fifo_2_6       $end
$var real    1  aaaax  fifo_2_7       $end
$var real    1  aaaay  fifo_3_0       $end
$var real    1  aaaaz  fifo_3_1       $end
$var real    1  aaaba  fifo_3_2       $end
$var real    1  aaabb  fifo_3_3       $end
$var real    1  aaabc  fifo_3_4       $end
$var real    1  aaabd  fifo_3_5       $end
$var real    1  aaabe  fifo_3_6       $end
$var real    1  aaabf  fifo_3_7       $end
$upscope $end
$upscope $end
$enddefinitions  $end

$comment
All initial values are dumped below at time 0 sec = 0 timescale units.
$end

$dumpvars
r2011 aaaaa
r3.067442338407025e-41 aaaab
r0 aaaac
r0 aaaad
r3.559244355763391e-17 aaaae
r1.832023514993055e+25 aaaaf
r6.593495034451775e+22 aaaag
r7.555081327053433e+31 aaaah
r2011 aaaai
r3.067442338407025e-41 aaaaj
r0 aaaak
r0 aaaal
r3.559244355763391e-17 aaaam
r1.832023514993055e+25 aaaan
r6.593495034451775e+22 aaaao
r7.555081327053433e+31 aaaap
r2.007790045845074e+29 aaaaq
r3.067442338407025e-41 aaaar
r0 aaaas
r0 aaaat
r3.559244355763391e-17 aaaau
r1.832023514993055e+25 aaaav
r6.593495034451775e+22 aaaaw
r7.555081327053433e+31 aaaax
r2.007847469821506e+29 aaaay
r3.067442338407025e-41 aaaaz
r0 aaaba
r0 aaabb
r3.559244355763391e-17 aaabc
r1.832023514993055e+25 aaabd
r6.593495034451775e+22 aaabe
r7.555081327053433e+31 aaabf
$end

#2
r0 aaaaa
r2011 aaaab
r0 aaaai
r2011 aaaaj

#4
r0 aaaab
r2011 aaaac
r0 aaaaj
r2011 aaaak

#6
r0 aaaac
r2011 aaaad
r0 aaaak
r2011 aaaal

#8
r0 aaaad
r2011 aaaae
r0 aaaal
r2011 aaaam

#10
r0 aaaae
r2011 aaaaf
r0 aaaam
r2011 aaaan

#12
r0 aaaaf
r2011 aaaag
r0 aaaan
r2011 aaaao

#14
r0 aaaag
r2011 aaaah
r0 aaaao
r2011 aaaap

#16
r1 aaaaa
r0 aaaah
r1 aaaai
r0 aaaap

#18
r16088 aaaaq
r0 aaaar
r0 aaaau
r0 aaaav
r0 aaaaw
r0 aaaax
r16088 aaaay
r0 aaaaz
r0 aaabc
r0 aaabd
r0 aaabe
r0 aaabf

#20
r0 aaaaa
r0 aaaai
r0 aaaaq
r0 aaaay

#32
r456 aaaai

#34
r120 aaaab
r234 aaaaj
r1 aaaaq
r1 aaaar
r1 aaaas
r1 aaaat
r1 aaaau
r1 aaaav
r1 aaaaw
r1 aaaay
r1 aaaaz
r1 aaaba
r1 aaabb
r1 aaabc
r1 aaabd
r1 aaabe

#36
r234 aaaac
r120 aaaak
r0 aaaaq
r1 aaaax
r0 aaaay
r1 aaabf

#38
r0 aaaab
r0 aaaac
r120 aaaad
r0 aaaai
r0 aaaaj
r0 aaaak
r0 aaaar
r0 aaaaz

#40
r0 aaaad
r-120 aaaam
r0 aaaas
r0 aaaba

#42
r-120 aaaaf
r0 aaaam
r-234 aaaan
r0 aaaat
r0 aaabb

#44
r0 aaaaf
r-234 aaaag
r0 aaaan
r-456 aaaao
r0 aaaau
r0 aaabc

#46
r0 aaaag
r-120 aaaah
r0 aaaao
r-768 aaaap
r0 aaaav
r0 aaabd

#48
r123 aaaaa
r0 aaaah
r29 aaaai
r0 aaaap
r0 aaaaw
r0 aaabe

#50
r34 aaaab
r34 aaaaj
r1449.984008789062 aaaar
r768 aaaas
r297.9839782714844 aaaat
r-297.9839782714844 aaaav
r-768 aaaaw
r0 aaaax
r-768 aaaay
r-443.5433044433594 aaaaz
r672 aaaba
r916.7207641601562 aaabb
r768 aaabc
r659.5432739257812 aaabd
r672 aaabe
r0 aaabf

#52
r-23 aaaac
r85 aaaak
r-1449.984008789062 aaaax
r0 aaaay
r1171.279174804688 aaabf

#54
r0 aaaaa
r0 aaaab
r0 aaaac
r12 aaaad
r0 aaaai
r0 aaaaj
r0 aaaak
r206 aaaal
r0 aaaar
r0 aaaaz

#56
r0 aaaad
r45 aaaae
r0 aaaal
r336 aaaam
r0 aaaas
r0 aaaba

#58
r0 aaaae
r0 aaaam
r593 aaaan
r0 aaaat
r0 aaabb

#60
r67 aaaag
r0 aaaan
r823 aaaao
r0 aaabc

#62
r0 aaaag
r134 aaaah
r0 aaaao
r422 aaaap
r0 aaaav
r0 aaabd

#64
r134 aaaaa
r0 aaaah
r422 aaaai
r0 aaaap
r0 aaaaw
r0 aaabe

#66
r392 aaaaq
r-1097.699096679688 aaaar
r123 aaaas
r157.68359375 aaaat
r32 aaaau
r-222.3009033203125 aaaav
r125 aaaaw
r0 aaaax
r2528 aaaay
r-397.3122253417969 aaaaz
r-431 aaaba
r-92.23697662353516 aaabb
r18 aaabc
r-36.68777084350586 aaabd
r-655 aaabe
r0 aaabf

#68
r0 aaaaq
r1474.31640625 aaaax
r0 aaaay
r-701.7630004882812 aaabf

#70
r0 aaaaa
r0 aaaai
r0 aaaar
r0 aaaaz

#72
r0 aaaas
r0 aaaba

#74
r0 aaaat
r0 aaabb

#76
r0 aaaau
r0 aaabc

#78
r0 aaaav
r0 aaabd

#80
r0 aaaaw
r0 aaabe

#82
r0 aaaax
r0 aaabf

